<?xml version="1.0"?>
<svg xmlns="http://www.w3.org/2000/svg" xmlns:xlink="http://www.w3.org/1999/xlink" version="1.1" id="Capa_1" x="0px" y="0px" viewBox="0 0 490.656 490.656" style="enable-background:new 0 0 490.656 490.656;" xml:space="preserve" width="512px" height="512px" class=""><g><g>
	<g>
		<path d="M487.536,120.445c-4.16-4.16-10.923-4.16-15.083,0L245.339,347.581L18.203,120.467c-4.16-4.16-10.923-4.16-15.083,0    c-4.16,4.16-4.16,10.923,0,15.083l234.667,234.667c2.091,2.069,4.821,3.115,7.552,3.115s5.461-1.045,7.531-3.136l234.667-234.667    C491.696,131.368,491.696,124.605,487.536,120.445z" data-original="#000000" class="active-path" data-old_color="#000000" fill="#7FCFAF"/>
	</g>
</g></g> </svg>
